{
  "$schema": "http://json-schema.org/draft-04/schema#",
  "type": "object",
  "properties": {
    "name": {
      "type": "string"
    },
    "price": {
      "type": "number"
    },
    "datePlaced": {
      "type": "string"
    }
  },
  "required": [
    "name",
    "price",
    "datePlaced"
  ]
}