{
  "applicationNumber":3211,
  "applicationCategory":"3",
  "office":"NC",
  "label": "Notes for my application",
  "text": "Decision is pending further information",
  "restricted": false,
  "activityNumber": "567765"
}